%YAML 1.1
%TAG !u! tag:unity3d.com,2011:
--- !u!1 &1219817251160850925
GameObject:
  m_ObjectHideFlags: 0
  m_CorrespondingSourceObject: {fileID: 0}
  m_PrefabInstance: {fileID: 0}
  m_PrefabAsset: {fileID: 0}
  serializedVersion: 6
  m_Component:
  - component: {fileID: 2244716646867258540}
  - component: {fileID: 7824010555775224414}
  m_Layer: 11
  m_Name: Side_Torch
  m_TagString: Untagged
  m_Icon: {fileID: 0}
  m_NavMeshLayer: 0
  m_StaticEditorFlags: 0
  m_IsActive: 1
--- !u!4 &2244716646867258540
Transform:
  m_ObjectHideFlags: 0
  m_CorrespondingSourceObject: {fileID: 0}
  m_PrefabInstance: {fileID: 0}
  m_PrefabAsset: {fileID: 0}
  m_GameObject: {fileID: 1219817251160850925}
  m_LocalRotation: {x: -0, y: -0, z: -0, w: 1}
  m_LocalPosition: {x: -13.79, y: -50.77, z: 0}
  m_LocalScale: {x: 0.5, y: 0.5, z: 1}
  m_Children:
  - {fileID: 3666532168496424533}
  m_Father: {fileID: 0}
  m_RootOrder: 0
  m_LocalEulerAnglesHint: {x: 0, y: 0, z: 0}
--- !u!212 &7824010555775224414
SpriteRenderer:
  m_ObjectHideFlags: 0
  m_CorrespondingSourceObject: {fileID: 0}
  m_PrefabInstance: {fileID: 0}
  m_PrefabAsset: {fileID: 0}
  m_GameObject: {fileID: 1219817251160850925}
  m_Enabled: 1
  m_CastShadows: 0
  m_ReceiveShadows: 0
  m_DynamicOccludee: 1
  m_MotionVectors: 1
  m_LightProbeUsage: 1
  m_ReflectionProbeUsage: 1
  m_RayTracingMode: 0
  m_RenderingLayerMask: 1
  m_RendererPriority: 0
  m_Materials:
  - {fileID: 2100000, guid: a97c105638bdf8b4a8650670310a4cd3, type: 2}
  m_StaticBatchInfo:
    firstSubMesh: 0
    subMeshCount: 0
  m_StaticBatchRoot: {fileID: 0}
  m_ProbeAnchor: {fileID: 0}
  m_LightProbeVolumeOverride: {fileID: 0}
  m_ScaleInLightmap: 1
  m_ReceiveGI: 1
  m_PreserveUVs: 0
  m_IgnoreNormalsForChartDetection: 0
  m_ImportantGI: 0
  m_StitchLightmapSeams: 1
  m_SelectedEditorRenderState: 0
  m_MinimumChartSize: 4
  m_AutoUVMaxDistance: 0.5
  m_AutoUVMaxAngle: 89
  m_LightmapParameters: {fileID: 0}
  m_SortingLayerID: 525531139
  m_SortingLayer: -2
  m_SortingOrder: 2
  m_Sprite: {fileID: 21300000, guid: 0335b8f6fb5d5eb4f98b1f11c132747d, type: 3}
  m_Color: {r: 1, g: 1, b: 1, a: 1}
  m_FlipX: 0
  m_FlipY: 0
  m_DrawMode: 0
  m_Size: {x: 6.48, y: 5.88}
  m_AdaptiveModeThreshold: 0.5
  m_SpriteTileMode: 0
  m_WasSpriteAssigned: 1
  m_MaskInteraction: 0
  m_SpriteSortPoint: 0
--- !u!1001 &4033452311011119924
PrefabInstance:
  m_ObjectHideFlags: 0
  serializedVersion: 2
  m_Modification:
    m_TransformParent: {fileID: 2244716646867258540}
    m_Modifications:
    - target: {fileID: 368046214538652501, guid: 64a4e3ac873e71d4ebacbef577786ce9,
        type: 3}
      propertyPath: m_Layer
      value: 11
      objectReference: {fileID: 0}
    - target: {fileID: 368046214735915701, guid: 64a4e3ac873e71d4ebacbef577786ce9,
        type: 3}
      propertyPath: m_Layer
      value: 11
      objectReference: {fileID: 0}
    - target: {fileID: 368046214958702486, guid: 64a4e3ac873e71d4ebacbef577786ce9,
        type: 3}
      propertyPath: m_Layer
      value: 11
      objectReference: {fileID: 0}
    - target: {fileID: 368046215979547679, guid: 64a4e3ac873e71d4ebacbef577786ce9,
        type: 3}
      propertyPath: m_Layer
      value: 11
      objectReference: {fileID: 0}
    - target: {fileID: 368046216519251297, guid: 64a4e3ac873e71d4ebacbef577786ce9,
        type: 3}
      propertyPath: m_LocalPosition.x
      value: -0.1
      objectReference: {fileID: 0}
    - target: {fileID: 368046216519251297, guid: 64a4e3ac873e71d4ebacbef577786ce9,
        type: 3}
      propertyPath: m_LocalPosition.y
      value: 1.36
      objectReference: {fileID: 0}
    - target: {fileID: 368046216519251297, guid: 64a4e3ac873e71d4ebacbef577786ce9,
        type: 3}
      propertyPath: m_LocalPosition.z
      value: 0
      objectReference: {fileID: 0}
    - target: {fileID: 368046216519251297, guid: 64a4e3ac873e71d4ebacbef577786ce9,
        type: 3}
      propertyPath: m_LocalRotation.x
      value: -0.7071068
      objectReference: {fileID: 0}
    - target: {fileID: 368046216519251297, guid: 64a4e3ac873e71d4ebacbef577786ce9,
        type: 3}
      propertyPath: m_LocalRotation.y
      value: 0
      objectReference: {fileID: 0}
    - target: {fileID: 368046216519251297, guid: 64a4e3ac873e71d4ebacbef577786ce9,
        type: 3}
      propertyPath: m_LocalRotation.z
      value: 0
      objectReference: {fileID: 0}
    - target: {fileID: 368046216519251297, guid: 64a4e3ac873e71d4ebacbef577786ce9,
        type: 3}
      propertyPath: m_LocalRotation.w
      value: 0.7071068
      objectReference: {fileID: 0}
    - target: {fileID: 368046216519251297, guid: 64a4e3ac873e71d4ebacbef577786ce9,
        type: 3}
      propertyPath: m_RootOrder
      value: 0
      objectReference: {fileID: 0}
    - target: {fileID: 368046216519251297, guid: 64a4e3ac873e71d4ebacbef577786ce9,
        type: 3}
      propertyPath: m_LocalEulerAnglesHint.x
      value: -90
      objectReference: {fileID: 0}
    - target: {fileID: 368046216519251297, guid: 64a4e3ac873e71d4ebacbef577786ce9,
        type: 3}
      propertyPath: m_LocalEulerAnglesHint.y
      value: 0
      objectReference: {fileID: 0}
    - target: {fileID: 368046216519251297, guid: 64a4e3ac873e71d4ebacbef577786ce9,
        type: 3}
      propertyPath: m_LocalEulerAnglesHint.z
      value: 0
      objectReference: {fileID: 0}
    - target: {fileID: 368046216519251300, guid: 64a4e3ac873e71d4ebacbef577786ce9,
        type: 3}
      propertyPath: m_Name
      value: Fire
      objectReference: {fileID: 0}
    - target: {fileID: 368046216519251300, guid: 64a4e3ac873e71d4ebacbef577786ce9,
        type: 3}
      propertyPath: m_Layer
      value: 11
      objectReference: {fileID: 0}
    - target: {fileID: 5304713996089009755, guid: 64a4e3ac873e71d4ebacbef577786ce9,
        type: 3}
      propertyPath: Stimuli
      value: LuzTorch
      objectReference: {fileID: 0}
    - target: {fileID: 8526510880352764713, guid: 64a4e3ac873e71d4ebacbef577786ce9,
        type: 3}
      propertyPath: m_Layer
      value: 11
      objectReference: {fileID: 0}
    m_RemovedComponents: []
  m_SourcePrefab: {fileID: 100100000, guid: 64a4e3ac873e71d4ebacbef577786ce9, type: 3}
--- !u!4 &3666532168496424533 stripped
Transform:
  m_CorrespondingSourceObject: {fileID: 368046216519251297, guid: 64a4e3ac873e71d4ebacbef577786ce9,
    type: 3}
  m_PrefabInstance: {fileID: 4033452311011119924}
  m_PrefabAsset: {fileID: 0}
