%YAML 1.1
%TAG !u! tag:unity3d.com,2011:
--- !u!114 &11400000
MonoBehaviour:
  m_ObjectHideFlags: 0
  m_CorrespondingSourceObject: {fileID: 0}
  m_PrefabInstance: {fileID: 0}
  m_PrefabAsset: {fileID: 0}
  m_GameObject: {fileID: 0}
  m_Enabled: 1
  m_EditorHideFlags: 0
  m_Script: {fileID: 11500000, guid: 1b77997a3c4b04718902b02088d317c8, type: 3}
  m_Name: 54788DC2-CA4B-4559-900C-9E5BBC7E584F
  m_EditorClassIdentifier: 
  objectName: Librorecetas
  id: 2056633052
  guid: 54788DC2-CA4B-4559-900C-9E5BBC7E584F
