%YAML 1.1
%TAG !u! tag:unity3d.com,2011:
--- !u!114 &11400000
MonoBehaviour:
  m_ObjectHideFlags: 0
  m_CorrespondingSourceObject: {fileID: 0}
  m_PrefabInstance: {fileID: 0}
  m_PrefabAsset: {fileID: 0}
  m_GameObject: {fileID: 0}
  m_Enabled: 1
  m_EditorHideFlags: 0
  m_Script: {fileID: 11500000, guid: 1b77997a3c4b04718902b02088d317c8, type: 3}
  m_Name: 5F232927-EEEE-4E70-9C78-A88B003A8107
  m_EditorClassIdentifier: 
  objectName: Explosion
  id: 13776098
  guid: 5F232927-EEEE-4E70-9C78-A88B003A8107
