%YAML 1.1
%TAG !u! tag:unity3d.com,2011:
--- !u!29 &1
OcclusionCullingSettings:
  m_ObjectHideFlags: 0
  serializedVersion: 2
  m_OcclusionBakeSettings:
    smallestOccluder: 5
    smallestHole: 0.25
    backfaceThreshold: 100
  m_SceneGUID: 00000000000000000000000000000000
  m_OcclusionCullingData: {fileID: 0}
--- !u!104 &2
RenderSettings:
  m_ObjectHideFlags: 0
  serializedVersion: 9
  m_Fog: 0
  m_FogColor: {r: 0.5, g: 0.5, b: 0.5, a: 1}
  m_FogMode: 3
  m_FogDensity: 0.01
  m_LinearFogStart: 0
  m_LinearFogEnd: 300
  m_AmbientSkyColor: {r: 0.212, g: 0.227, b: 0.259, a: 1}
  m_AmbientEquatorColor: {r: 0.114, g: 0.125, b: 0.133, a: 1}
  m_AmbientGroundColor: {r: 0.047, g: 0.043, b: 0.035, a: 1}
  m_AmbientIntensity: 1
  m_AmbientMode: 0
  m_SubtractiveShadowColor: {r: 0.42, g: 0.478, b: 0.627, a: 1}
  m_SkyboxMaterial: {fileID: 10304, guid: 0000000000000000f000000000000000, type: 0}
  m_HaloStrength: 0.5
  m_FlareStrength: 1
  m_FlareFadeSpeed: 3
  m_HaloTexture: {fileID: 0}
  m_SpotCookie: {fileID: 10001, guid: 0000000000000000e000000000000000, type: 0}
  m_DefaultReflectionMode: 0
  m_DefaultReflectionResolution: 128
  m_ReflectionBounces: 1
  m_ReflectionIntensity: 1
  m_CustomReflection: {fileID: 0}
  m_Sun: {fileID: 705507994}
  m_IndirectSpecularColor: {r: 0.44657874, g: 0.49641258, b: 0.5748172, a: 1}
  m_UseRadianceAmbientProbe: 0
--- !u!157 &3
LightmapSettings:
  m_ObjectHideFlags: 0
  serializedVersion: 11
  m_GIWorkflowMode: 0
  m_GISettings:
    serializedVersion: 2
    m_BounceScale: 1
    m_IndirectOutputScale: 1
    m_AlbedoBoost: 1
    m_EnvironmentLightingMode: 0
    m_EnableBakedLightmaps: 1
    m_EnableRealtimeLightmaps: 0
  m_LightmapEditorSettings:
    serializedVersion: 12
    m_Resolution: 2
    m_BakeResolution: 40
    m_AtlasSize: 1024
    m_AO: 0
    m_AOMaxDistance: 1
    m_CompAOExponent: 1
    m_CompAOExponentDirect: 0
    m_ExtractAmbientOcclusion: 0
    m_Padding: 2
    m_LightmapParameters: {fileID: 0}
    m_LightmapsBakeMode: 1
    m_TextureCompression: 1
    m_FinalGather: 0
    m_FinalGatherFiltering: 1
    m_FinalGatherRayCount: 256
    m_ReflectionCompression: 2
    m_MixedBakeMode: 2
    m_BakeBackend: 1
    m_PVRSampling: 1
    m_PVRDirectSampleCount: 32
    m_PVRSampleCount: 500
    m_PVRBounces: 2
    m_PVREnvironmentSampleCount: 500
    m_PVREnvironmentReferencePointCount: 2048
    m_PVRFilteringMode: 2
    m_PVRDenoiserTypeDirect: 0
    m_PVRDenoiserTypeIndirect: 0
    m_PVRDenoiserTypeAO: 0
    m_PVRFilterTypeDirect: 0
    m_PVRFilterTypeIndirect: 0
    m_PVRFilterTypeAO: 0
    m_PVREnvironmentMIS: 0
    m_PVRCulling: 1
    m_PVRFilteringGaussRadiusDirect: 1
    m_PVRFilteringGaussRadiusIndirect: 5
    m_PVRFilteringGaussRadiusAO: 2
    m_PVRFilteringAtrousPositionSigmaDirect: 0.5
    m_PVRFilteringAtrousPositionSigmaIndirect: 2
    m_PVRFilteringAtrousPositionSigmaAO: 1
    m_ExportTrainingData: 0
    m_TrainingDataDestination: TrainingData
    m_LightProbeSampleCountMultiplier: 4
  m_LightingDataAsset: {fileID: 0}
  m_UseShadowmask: 1
--- !u!196 &4
NavMeshSettings:
  serializedVersion: 2
  m_ObjectHideFlags: 0
  m_BuildSettings:
    serializedVersion: 2
    agentTypeID: 0
    agentRadius: 0.5
    agentHeight: 2
    agentSlope: 45
    agentClimb: 0.4
    ledgeDropHeight: 0
    maxJumpAcrossDistance: 0
    minRegionArea: 2
    manualCellSize: 0
    cellSize: 0.16666667
    manualTileSize: 0
    tileSize: 256
    accuratePlacement: 0
    debug:
      m_Flags: 0
  m_NavMeshData: {fileID: 0}
--- !u!114 &57259937 stripped
MonoBehaviour:
  m_CorrespondingSourceObject: {fileID: 4093964589701830450, guid: ec4e144ce65b44947be93a1b9551cab1,
    type: 3}
  m_PrefabInstance: {fileID: 2143721473}
  m_PrefabAsset: {fileID: 0}
  m_GameObject: {fileID: 0}
  m_Enabled: 1
  m_EditorHideFlags: 0
  m_Script: {fileID: 11500000, guid: ad9384fcdd5747b4aba7af726eb77053, type: 3}
  m_Name: 
  m_EditorClassIdentifier: 
--- !u!1001 &274032503
PrefabInstance:
  m_ObjectHideFlags: 0
  serializedVersion: 2
  m_Modification:
    m_TransformParent: {fileID: 0}
    m_Modifications:
    - target: {fileID: 282436753325655550, guid: aef0ee4d16982b34f9ee96aa9c86b269,
        type: 3}
      propertyPath: m_RootOrder
      value: 5
      objectReference: {fileID: 0}
    - target: {fileID: 282436753325655550, guid: aef0ee4d16982b34f9ee96aa9c86b269,
        type: 3}
      propertyPath: m_LocalPosition.x
      value: 0
      objectReference: {fileID: 0}
    - target: {fileID: 282436753325655550, guid: aef0ee4d16982b34f9ee96aa9c86b269,
        type: 3}
      propertyPath: m_LocalPosition.y
      value: 0
      objectReference: {fileID: 0}
    - target: {fileID: 282436753325655550, guid: aef0ee4d16982b34f9ee96aa9c86b269,
        type: 3}
      propertyPath: m_LocalPosition.z
      value: 0
      objectReference: {fileID: 0}
    - target: {fileID: 282436753325655550, guid: aef0ee4d16982b34f9ee96aa9c86b269,
        type: 3}
      propertyPath: m_LocalRotation.w
      value: 1
      objectReference: {fileID: 0}
    - target: {fileID: 282436753325655550, guid: aef0ee4d16982b34f9ee96aa9c86b269,
        type: 3}
      propertyPath: m_LocalRotation.x
      value: 0
      objectReference: {fileID: 0}
    - target: {fileID: 282436753325655550, guid: aef0ee4d16982b34f9ee96aa9c86b269,
        type: 3}
      propertyPath: m_LocalRotation.y
      value: 0
      objectReference: {fileID: 0}
    - target: {fileID: 282436753325655550, guid: aef0ee4d16982b34f9ee96aa9c86b269,
        type: 3}
      propertyPath: m_LocalRotation.z
      value: 0
      objectReference: {fileID: 0}
    - target: {fileID: 282436753325655550, guid: aef0ee4d16982b34f9ee96aa9c86b269,
        type: 3}
      propertyPath: m_LocalEulerAnglesHint.x
      value: 0
      objectReference: {fileID: 0}
    - target: {fileID: 282436753325655550, guid: aef0ee4d16982b34f9ee96aa9c86b269,
        type: 3}
      propertyPath: m_LocalEulerAnglesHint.y
      value: 0
      objectReference: {fileID: 0}
    - target: {fileID: 282436753325655550, guid: aef0ee4d16982b34f9ee96aa9c86b269,
        type: 3}
      propertyPath: m_LocalEulerAnglesHint.z
      value: 0
      objectReference: {fileID: 0}
    - target: {fileID: 2513420063017794926, guid: aef0ee4d16982b34f9ee96aa9c86b269,
        type: 3}
      propertyPath: m_Name
      value: Bat
      objectReference: {fileID: 0}
    - target: {fileID: 2787651120889613237, guid: aef0ee4d16982b34f9ee96aa9c86b269,
        type: 3}
      propertyPath: path.showLocations
      value: 1
      objectReference: {fileID: 0}
    - target: {fileID: 2787651120889613237, guid: aef0ee4d16982b34f9ee96aa9c86b269,
        type: 3}
      propertyPath: path.Locations.Array.size
      value: 2
      objectReference: {fileID: 0}
    - target: {fileID: 2787651120889613237, guid: aef0ee4d16982b34f9ee96aa9c86b269,
        type: 3}
      propertyPath: path.Locations.Array.data[0].Location.x
      value: -14.57
      objectReference: {fileID: 0}
    - target: {fileID: 2787651120889613237, guid: aef0ee4d16982b34f9ee96aa9c86b269,
        type: 3}
      propertyPath: path.Locations.Array.data[1].Location.x
      value: 13.52
      objectReference: {fileID: 0}
    - target: {fileID: 2787651120889613237, guid: aef0ee4d16982b34f9ee96aa9c86b269,
        type: 3}
      propertyPath: path.Locations.Array.data[0].showLocation
      value: 1
      objectReference: {fileID: 0}
    - target: {fileID: 2787651120889613237, guid: aef0ee4d16982b34f9ee96aa9c86b269,
        type: 3}
      propertyPath: path.Locations.Array.data[1].showLocation
      value: 1
      objectReference: {fileID: 0}
    - target: {fileID: 6906026781443670293, guid: aef0ee4d16982b34f9ee96aa9c86b269,
        type: 3}
      propertyPath: TriggerOnArrive
      value: 
      objectReference: {fileID: 408617530}
    m_RemovedComponents: []
  m_SourcePrefab: {fileID: 100100000, guid: aef0ee4d16982b34f9ee96aa9c86b269, type: 3}
--- !u!114 &408617530 stripped
MonoBehaviour:
  m_CorrespondingSourceObject: {fileID: 4226667121875612332, guid: aef0ee4d16982b34f9ee96aa9c86b269,
    type: 3}
  m_PrefabInstance: {fileID: 274032503}
  m_PrefabAsset: {fileID: 0}
  m_GameObject: {fileID: 0}
  m_Enabled: 1
  m_EditorHideFlags: 0
  m_Script: {fileID: 11500000, guid: ad9384fcdd5747b4aba7af726eb77053, type: 3}
  m_Name: 
  m_EditorClassIdentifier: 
--- !u!1 &705507993
GameObject:
  m_ObjectHideFlags: 0
  m_CorrespondingSourceObject: {fileID: 0}
  m_PrefabInstance: {fileID: 0}
  m_PrefabAsset: {fileID: 0}
  serializedVersion: 6
  m_Component:
  - component: {fileID: 705507995}
  - component: {fileID: 705507994}
  m_Layer: 0
  m_Name: Directional Light
  m_TagString: Untagged
  m_Icon: {fileID: 0}
  m_NavMeshLayer: 0
  m_StaticEditorFlags: 0
  m_IsActive: 1
--- !u!108 &705507994
Light:
  m_ObjectHideFlags: 0
  m_CorrespondingSourceObject: {fileID: 0}
  m_PrefabInstance: {fileID: 0}
  m_PrefabAsset: {fileID: 0}
  m_GameObject: {fileID: 705507993}
  m_Enabled: 1
  serializedVersion: 10
  m_Type: 1
  m_Shape: 0
  m_Color: {r: 1, g: 0.95686275, b: 0.8392157, a: 1}
  m_Intensity: 1
  m_Range: 10
  m_SpotAngle: 30
  m_InnerSpotAngle: 21.80208
  m_CookieSize: 10
  m_Shadows:
    m_Type: 2
    m_Resolution: -1
    m_CustomResolution: -1
    m_Strength: 1
    m_Bias: 0.05
    m_NormalBias: 0.4
    m_NearPlane: 0.2
    m_CullingMatrixOverride:
      e00: 1
      e01: 0
      e02: 0
      e03: 0
      e10: 0
      e11: 1
      e12: 0
      e13: 0
      e20: 0
      e21: 0
      e22: 1
      e23: 0
      e30: 0
      e31: 0
      e32: 0
      e33: 1
    m_UseCullingMatrixOverride: 0
  m_Cookie: {fileID: 0}
  m_DrawHalo: 0
  m_Flare: {fileID: 0}
  m_RenderMode: 0
  m_CullingMask:
    serializedVersion: 2
    m_Bits: 4294967295
  m_RenderingLayerMask: 1
  m_Lightmapping: 1
  m_LightShadowCasterMode: 0
  m_AreaSize: {x: 1, y: 1}
  m_BounceIntensity: 1
  m_ColorTemperature: 6570
  m_UseColorTemperature: 0
  m_BoundingSphereOverride: {x: 0, y: 3.6462e-41, z: 0, w: 0}
  m_UseBoundingSphereOverride: 0
  m_ShadowRadius: 0
  m_ShadowAngle: 0
--- !u!4 &705507995
Transform:
  m_ObjectHideFlags: 0
  m_CorrespondingSourceObject: {fileID: 0}
  m_PrefabInstance: {fileID: 0}
  m_PrefabAsset: {fileID: 0}
  m_GameObject: {fileID: 705507993}
  m_LocalRotation: {x: 0.40821788, y: -0.23456968, z: 0.10938163, w: 0.8754261}
  m_LocalPosition: {x: 0, y: 3, z: 0}
  m_LocalScale: {x: 1, y: 1, z: 1}
  m_Children: []
  m_Father: {fileID: 0}
  m_RootOrder: 1
  m_LocalEulerAnglesHint: {x: 50, y: -30, z: 0}
--- !u!1 &963194225
GameObject:
  m_ObjectHideFlags: 0
  m_CorrespondingSourceObject: {fileID: 0}
  m_PrefabInstance: {fileID: 0}
  m_PrefabAsset: {fileID: 0}
  serializedVersion: 6
  m_Component:
  - component: {fileID: 963194228}
  - component: {fileID: 963194227}
  - component: {fileID: 963194229}
  - component: {fileID: 963194226}
  - component: {fileID: 963194230}
  m_Layer: 0
  m_Name: Main Camera
  m_TagString: MainCamera
  m_Icon: {fileID: 0}
  m_NavMeshLayer: 0
  m_StaticEditorFlags: 0
  m_IsActive: 1
--- !u!114 &963194226
MonoBehaviour:
  m_ObjectHideFlags: 0
  m_CorrespondingSourceObject: {fileID: 0}
  m_PrefabInstance: {fileID: 0}
  m_PrefabAsset: {fileID: 0}
  m_GameObject: {fileID: 963194225}
  m_Enabled: 1
  m_EditorHideFlags: 0
  m_Script: {fileID: 11500000, guid: 4b2faed71a40f45a3ad609c013b0b575, type: 3}
  m_Name: 
  m_EditorClassIdentifier: 
  isDefaultListener: 1
  listenerId: 0
--- !u!20 &963194227
Camera:
  m_ObjectHideFlags: 0
  m_CorrespondingSourceObject: {fileID: 0}
  m_PrefabInstance: {fileID: 0}
  m_PrefabAsset: {fileID: 0}
  m_GameObject: {fileID: 963194225}
  m_Enabled: 1
  serializedVersion: 2
  m_ClearFlags: 1
  m_BackGroundColor: {r: 0.19215687, g: 0.3019608, b: 0.4745098, a: 0}
  m_projectionMatrixMode: 1
  m_GateFitMode: 2
  m_FOVAxisMode: 0
  m_SensorSize: {x: 36, y: 24}
  m_LensShift: {x: 0, y: 0}
  m_FocalLength: 50
  m_NormalizedViewPortRect:
    serializedVersion: 2
    x: 0
    y: 0
    width: 1
    height: 1
  near clip plane: 0.3
  far clip plane: 1000
  field of view: 120
  orthographic: 0
  orthographic size: 5
  m_Depth: -1
  m_CullingMask:
    serializedVersion: 2
    m_Bits: 4294967295
  m_RenderingPath: -1
  m_TargetTexture: {fileID: 0}
  m_TargetDisplay: 0
  m_TargetEye: 3
  m_HDR: 1
  m_AllowMSAA: 1
  m_AllowDynamicResolution: 0
  m_ForceIntoRT: 0
  m_OcclusionCulling: 1
  m_StereoConvergence: 10
  m_StereoSeparation: 0.022
--- !u!4 &963194228
Transform:
  m_ObjectHideFlags: 0
  m_CorrespondingSourceObject: {fileID: 0}
  m_PrefabInstance: {fileID: 0}
  m_PrefabAsset: {fileID: 0}
  m_GameObject: {fileID: 963194225}
  m_LocalRotation: {x: 0, y: 0, z: 0, w: 1}
  m_LocalPosition: {x: 0, y: 1, z: -10}
  m_LocalScale: {x: 1, y: 1, z: 1}
  m_Children: []
  m_Father: {fileID: 0}
  m_RootOrder: 0
  m_LocalEulerAnglesHint: {x: 0, y: 0, z: 0}
--- !u!114 &963194229
MonoBehaviour:
  m_ObjectHideFlags: 0
  m_CorrespondingSourceObject: {fileID: 0}
  m_PrefabInstance: {fileID: 0}
  m_PrefabAsset: {fileID: 0}
  m_GameObject: {fileID: 963194225}
  m_Enabled: 1
  m_EditorHideFlags: 0
  m_Script: {fileID: 11500000, guid: ddf34988f84904c3aa36ddbede0b9b4b, type: 3}
  m_Name: 
  m_EditorClassIdentifier: 
  m_listeners:
    initialListenerList: []
    useDefaultListeners: 1
  isEnvironmentAware: 0
  isStaticObject: 0
  m_positionOffsetData:
    KeepMe: 0
    positionOffset: {x: 0, y: 0, z: 0}
  m_posOffsetData: {fileID: 0}
  listenerMask: 1
--- !u!114 &963194230
MonoBehaviour:
  m_ObjectHideFlags: 0
  m_CorrespondingSourceObject: {fileID: 0}
  m_PrefabInstance: {fileID: 0}
  m_PrefabAsset: {fileID: 0}
  m_GameObject: {fileID: 963194225}
  m_Enabled: 1
  m_EditorHideFlags: 0
  m_Script: {fileID: 11500000, guid: a79441f348de89743a2939f4d699eac1, type: 3}
  m_Name: 
  m_EditorClassIdentifier: 
  m_RenderShadows: 1
  m_RequiresDepthTextureOption: 2
  m_RequiresOpaqueTextureOption: 2
  m_CameraType: 0
  m_Cameras: []
  m_RendererIndex: -1
  m_VolumeLayerMask:
    serializedVersion: 2
    m_Bits: 1
  m_VolumeTrigger: {fileID: 0}
  m_RenderPostProcessing: 0
  m_Antialiasing: 0
  m_AntialiasingQuality: 2
  m_StopNaN: 0
  m_Dithering: 0
  m_ClearDepth: 1
  m_RequiresDepthTexture: 0
  m_RequiresColorTexture: 0
  m_Version: 2
--- !u!1 &1113194458
GameObject:
  m_ObjectHideFlags: 0
  m_CorrespondingSourceObject: {fileID: 0}
  m_PrefabInstance: {fileID: 0}
  m_PrefabAsset: {fileID: 0}
  serializedVersion: 6
  m_Component:
  - component: {fileID: 1113194460}
  - component: {fileID: 1113194459}
  m_Layer: 0
  m_Name: WwiseGlobal
  m_TagString: Untagged
  m_Icon: {fileID: 0}
  m_NavMeshLayer: 0
  m_StaticEditorFlags: 0
  m_IsActive: 1
--- !u!114 &1113194459
MonoBehaviour:
  m_ObjectHideFlags: 0
  m_CorrespondingSourceObject: {fileID: 0}
  m_PrefabInstance: {fileID: 0}
  m_PrefabAsset: {fileID: 0}
  m_GameObject: {fileID: 1113194458}
  m_Enabled: 1
  m_EditorHideFlags: 0
  m_Script: {fileID: 11500000, guid: e4675b51c47914a59ab917363745c80d, type: 3}
  m_Name: 
  m_EditorClassIdentifier: 
  InitializationSettings: {fileID: 11400000, guid: 886024eab12764b51a4c74f2380b801d,
    type: 2}
  basePath: 
  language: 
  defaultPoolSize: 0
  lowerPoolSize: 0
  streamingPoolSize: 0
  memoryCutoffThreshold: 0
  monitorPoolSize: 0
  monitorQueuePoolSize: 0
  callbackManagerBufferSize: 0
  spatialAudioPoolSize: 0
  maxSoundPropagationDepth: 0
  diffractionFlags: 11
  engineLogging: 0
--- !u!4 &1113194460
Transform:
  m_ObjectHideFlags: 0
  m_CorrespondingSourceObject: {fileID: 0}
  m_PrefabInstance: {fileID: 0}
  m_PrefabAsset: {fileID: 0}
  m_GameObject: {fileID: 1113194458}
  m_LocalRotation: {x: 0, y: 0, z: 0, w: 1}
  m_LocalPosition: {x: 0, y: 0, z: 0}
  m_LocalScale: {x: 1, y: 1, z: 1}
  m_Children: []
  m_Father: {fileID: 0}
  m_RootOrder: 2
  m_LocalEulerAnglesHint: {x: 0, y: 0, z: 0}
--- !u!1001 &1457847152
PrefabInstance:
  m_ObjectHideFlags: 0
  serializedVersion: 2
  m_Modification:
    m_TransformParent: {fileID: 0}
    m_Modifications:
    - target: {fileID: 2556694420026183534, guid: e73b597c41dedae4b8c4c7d4a3f254cb,
        type: 3}
      propertyPath: m_RootOrder
      value: 6
      objectReference: {fileID: 0}
    - target: {fileID: 2556694420026183534, guid: e73b597c41dedae4b8c4c7d4a3f254cb,
        type: 3}
      propertyPath: m_LocalPosition.x
      value: 0
      objectReference: {fileID: 0}
    - target: {fileID: 2556694420026183534, guid: e73b597c41dedae4b8c4c7d4a3f254cb,
        type: 3}
      propertyPath: m_LocalPosition.y
      value: -7.74
      objectReference: {fileID: 0}
    - target: {fileID: 2556694420026183534, guid: e73b597c41dedae4b8c4c7d4a3f254cb,
        type: 3}
      propertyPath: m_LocalPosition.z
      value: 0
      objectReference: {fileID: 0}
    - target: {fileID: 2556694420026183534, guid: e73b597c41dedae4b8c4c7d4a3f254cb,
        type: 3}
      propertyPath: m_LocalRotation.w
      value: 1
      objectReference: {fileID: 0}
    - target: {fileID: 2556694420026183534, guid: e73b597c41dedae4b8c4c7d4a3f254cb,
        type: 3}
      propertyPath: m_LocalRotation.x
      value: -0
      objectReference: {fileID: 0}
    - target: {fileID: 2556694420026183534, guid: e73b597c41dedae4b8c4c7d4a3f254cb,
        type: 3}
      propertyPath: m_LocalRotation.y
      value: -0
      objectReference: {fileID: 0}
    - target: {fileID: 2556694420026183534, guid: e73b597c41dedae4b8c4c7d4a3f254cb,
        type: 3}
      propertyPath: m_LocalRotation.z
      value: -0
      objectReference: {fileID: 0}
    - target: {fileID: 2556694420026183534, guid: e73b597c41dedae4b8c4c7d4a3f254cb,
        type: 3}
      propertyPath: m_LocalEulerAnglesHint.x
      value: 0
      objectReference: {fileID: 0}
    - target: {fileID: 2556694420026183534, guid: e73b597c41dedae4b8c4c7d4a3f254cb,
        type: 3}
      propertyPath: m_LocalEulerAnglesHint.y
      value: 0
      objectReference: {fileID: 0}
    - target: {fileID: 2556694420026183534, guid: e73b597c41dedae4b8c4c7d4a3f254cb,
        type: 3}
      propertyPath: m_LocalEulerAnglesHint.z
      value: 0
      objectReference: {fileID: 0}
    - target: {fileID: 9034535445072283406, guid: e73b597c41dedae4b8c4c7d4a3f254cb,
        type: 3}
      propertyPath: m_Name
      value: BoxA
      objectReference: {fileID: 0}
    m_RemovedComponents: []
  m_SourcePrefab: {fileID: 100100000, guid: e73b597c41dedae4b8c4c7d4a3f254cb, type: 3}
--- !u!1001 &1918383592
PrefabInstance:
  m_ObjectHideFlags: 0
  serializedVersion: 2
  m_Modification:
    m_TransformParent: {fileID: 0}
    m_Modifications:
    - target: {fileID: 2920218907426417563, guid: 1d6c14c046aab2340a0a2645fd0ac0a4,
        type: 3}
      propertyPath: m_RootOrder
      value: 3
      objectReference: {fileID: 0}
    - target: {fileID: 2920218907426417563, guid: 1d6c14c046aab2340a0a2645fd0ac0a4,
        type: 3}
      propertyPath: m_LocalPosition.x
      value: 8.9
      objectReference: {fileID: 0}
    - target: {fileID: 2920218907426417563, guid: 1d6c14c046aab2340a0a2645fd0ac0a4,
        type: 3}
      propertyPath: m_LocalPosition.y
      value: -10.51
      objectReference: {fileID: 0}
    - target: {fileID: 2920218907426417563, guid: 1d6c14c046aab2340a0a2645fd0ac0a4,
        type: 3}
      propertyPath: m_LocalPosition.z
      value: 0
      objectReference: {fileID: 0}
    - target: {fileID: 2920218907426417563, guid: 1d6c14c046aab2340a0a2645fd0ac0a4,
        type: 3}
      propertyPath: m_LocalRotation.w
      value: 1
      objectReference: {fileID: 0}
    - target: {fileID: 2920218907426417563, guid: 1d6c14c046aab2340a0a2645fd0ac0a4,
        type: 3}
      propertyPath: m_LocalRotation.x
      value: 0
      objectReference: {fileID: 0}
    - target: {fileID: 2920218907426417563, guid: 1d6c14c046aab2340a0a2645fd0ac0a4,
        type: 3}
      propertyPath: m_LocalRotation.y
      value: 0
      objectReference: {fileID: 0}
    - target: {fileID: 2920218907426417563, guid: 1d6c14c046aab2340a0a2645fd0ac0a4,
        type: 3}
      propertyPath: m_LocalRotation.z
      value: 0
      objectReference: {fileID: 0}
    - target: {fileID: 2920218907426417563, guid: 1d6c14c046aab2340a0a2645fd0ac0a4,
        type: 3}
      propertyPath: m_LocalEulerAnglesHint.x
      value: 0
      objectReference: {fileID: 0}
    - target: {fileID: 2920218907426417563, guid: 1d6c14c046aab2340a0a2645fd0ac0a4,
        type: 3}
      propertyPath: m_LocalEulerAnglesHint.y
      value: 0
      objectReference: {fileID: 0}
    - target: {fileID: 2920218907426417563, guid: 1d6c14c046aab2340a0a2645fd0ac0a4,
        type: 3}
      propertyPath: m_LocalEulerAnglesHint.z
      value: 0
      objectReference: {fileID: 0}
    - target: {fileID: 2920218907426417637, guid: 1d6c14c046aab2340a0a2645fd0ac0a4,
        type: 3}
      propertyPath: m_Name
      value: Player
      objectReference: {fileID: 0}
    m_RemovedComponents: []
  m_SourcePrefab: {fileID: 100100000, guid: 1d6c14c046aab2340a0a2645fd0ac0a4, type: 3}
--- !u!1001 &2143721473
PrefabInstance:
  m_ObjectHideFlags: 0
  serializedVersion: 2
  m_Modification:
    m_TransformParent: {fileID: 0}
    m_Modifications:
    - target: {fileID: 282436753325655550, guid: ec4e144ce65b44947be93a1b9551cab1,
        type: 3}
      propertyPath: m_RootOrder
      value: 4
      objectReference: {fileID: 0}
    - target: {fileID: 282436753325655550, guid: ec4e144ce65b44947be93a1b9551cab1,
        type: 3}
      propertyPath: m_LocalPosition.x
      value: -25.26
      objectReference: {fileID: 0}
    - target: {fileID: 282436753325655550, guid: ec4e144ce65b44947be93a1b9551cab1,
        type: 3}
      propertyPath: m_LocalPosition.y
      value: 0
      objectReference: {fileID: 0}
    - target: {fileID: 282436753325655550, guid: ec4e144ce65b44947be93a1b9551cab1,
        type: 3}
      propertyPath: m_LocalPosition.z
      value: 0
      objectReference: {fileID: 0}
    - target: {fileID: 282436753325655550, guid: ec4e144ce65b44947be93a1b9551cab1,
        type: 3}
      propertyPath: m_LocalRotation.w
      value: 1
      objectReference: {fileID: 0}
    - target: {fileID: 282436753325655550, guid: ec4e144ce65b44947be93a1b9551cab1,
        type: 3}
      propertyPath: m_LocalRotation.x
      value: 0
      objectReference: {fileID: 0}
    - target: {fileID: 282436753325655550, guid: ec4e144ce65b44947be93a1b9551cab1,
        type: 3}
      propertyPath: m_LocalRotation.y
      value: 0
      objectReference: {fileID: 0}
    - target: {fileID: 282436753325655550, guid: ec4e144ce65b44947be93a1b9551cab1,
        type: 3}
      propertyPath: m_LocalRotation.z
      value: 0
      objectReference: {fileID: 0}
    - target: {fileID: 282436753325655550, guid: ec4e144ce65b44947be93a1b9551cab1,
        type: 3}
      propertyPath: m_LocalEulerAnglesHint.x
      value: 0
      objectReference: {fileID: 0}
    - target: {fileID: 282436753325655550, guid: ec4e144ce65b44947be93a1b9551cab1,
        type: 3}
      propertyPath: m_LocalEulerAnglesHint.y
      value: 0
      objectReference: {fileID: 0}
    - target: {fileID: 282436753325655550, guid: ec4e144ce65b44947be93a1b9551cab1,
        type: 3}
      propertyPath: m_LocalEulerAnglesHint.z
      value: 0
      objectReference: {fileID: 0}
    - target: {fileID: 2513420063017794926, guid: ec4e144ce65b44947be93a1b9551cab1,
        type: 3}
      propertyPath: m_Name
      value: Polilla
      objectReference: {fileID: 0}
    - target: {fileID: 4880124607173301440, guid: ec4e144ce65b44947be93a1b9551cab1,
        type: 3}
      propertyPath: showPath
      value: 1
      objectReference: {fileID: 0}
    - target: {fileID: 4880124607173301440, guid: ec4e144ce65b44947be93a1b9551cab1,
        type: 3}
      propertyPath: AutoStart
      value: 1
      objectReference: {fileID: 0}
    - target: {fileID: 4880124607173301440, guid: ec4e144ce65b44947be93a1b9551cab1,
        type: 3}
      propertyPath: path.showLocations
      value: 1
      objectReference: {fileID: 0}
    - target: {fileID: 4880124607173301440, guid: ec4e144ce65b44947be93a1b9551cab1,
        type: 3}
      propertyPath: path.Locations.Array.size
      value: 6
      objectReference: {fileID: 0}
    - target: {fileID: 4880124607173301440, guid: ec4e144ce65b44947be93a1b9551cab1,
        type: 3}
      propertyPath: path.Locations.Array.data[1].Location.x
      value: 13.32
      objectReference: {fileID: 0}
    - target: {fileID: 4880124607173301440, guid: ec4e144ce65b44947be93a1b9551cab1,
        type: 3}
      propertyPath: path.Locations.Array.data[1].Location.y
      value: 8.22
      objectReference: {fileID: 0}
    - target: {fileID: 4880124607173301440, guid: ec4e144ce65b44947be93a1b9551cab1,
        type: 3}
      propertyPath: path.Locations.Array.data[2].Location.x
      value: 28.23
      objectReference: {fileID: 0}
    - target: {fileID: 4880124607173301440, guid: ec4e144ce65b44947be93a1b9551cab1,
        type: 3}
      propertyPath: path.Locations.Array.data[2].Location.y
      value: 8.22
      objectReference: {fileID: 0}
    - target: {fileID: 4880124607173301440, guid: ec4e144ce65b44947be93a1b9551cab1,
        type: 3}
      propertyPath: path.Locations.Array.data[3].Location.x
      value: 45.6
      objectReference: {fileID: 0}
    - target: {fileID: 4880124607173301440, guid: ec4e144ce65b44947be93a1b9551cab1,
        type: 3}
      propertyPath: path.Locations.Array.data[3].Location.y
      value: 0
      objectReference: {fileID: 0}
    - target: {fileID: 4880124607173301440, guid: ec4e144ce65b44947be93a1b9551cab1,
        type: 3}
      propertyPath: path.Locations.Array.data[4].Location.x
      value: 28.23
      objectReference: {fileID: 0}
    - target: {fileID: 4880124607173301440, guid: ec4e144ce65b44947be93a1b9551cab1,
        type: 3}
      propertyPath: path.Locations.Array.data[4].Location.y
      value: -8.22
      objectReference: {fileID: 0}
    - target: {fileID: 4880124607173301440, guid: ec4e144ce65b44947be93a1b9551cab1,
        type: 3}
      propertyPath: path.Locations.Array.data[5].Location.x
      value: 13.32
      objectReference: {fileID: 0}
    - target: {fileID: 4880124607173301440, guid: ec4e144ce65b44947be93a1b9551cab1,
        type: 3}
      propertyPath: path.Locations.Array.data[5].Location.y
      value: -8.22
      objectReference: {fileID: 0}
    - target: {fileID: 4880124607173301440, guid: ec4e144ce65b44947be93a1b9551cab1,
        type: 3}
      propertyPath: path.Locations.Array.data[1].showLocation
      value: 1
      objectReference: {fileID: 0}
    - target: {fileID: 4880124607173301440, guid: ec4e144ce65b44947be93a1b9551cab1,
        type: 3}
      propertyPath: path.Locations.Array.data[2].showLocation
      value: 1
      objectReference: {fileID: 0}
    - target: {fileID: 4880124607173301440, guid: ec4e144ce65b44947be93a1b9551cab1,
        type: 3}
      propertyPath: path.Locations.Array.data[3].showLocation
      value: 1
      objectReference: {fileID: 0}
    - target: {fileID: 4880124607173301440, guid: ec4e144ce65b44947be93a1b9551cab1,
        type: 3}
      propertyPath: path.Locations.Array.data[4].showLocation
      value: 1
      objectReference: {fileID: 0}
    - target: {fileID: 4880124607173301440, guid: ec4e144ce65b44947be93a1b9551cab1,
        type: 3}
      propertyPath: path.Locations.Array.data[5].showLocation
      value: 1
      objectReference: {fileID: 0}
    - target: {fileID: 8881447605428376451, guid: ec4e144ce65b44947be93a1b9551cab1,
        type: 3}
      propertyPath: MinDistance
      value: 4
      objectReference: {fileID: 0}
    - target: {fileID: 8881447605428376451, guid: ec4e144ce65b44947be93a1b9551cab1,
        type: 3}
      propertyPath: TriggerOnArrive
      value: 
      objectReference: {fileID: 57259937}
    m_RemovedComponents: []
  m_SourcePrefab: {fileID: 100100000, guid: ec4e144ce65b44947be93a1b9551cab1, type: 3}
